Week_of_the_month,Day_of_the_week,Non_urgent_order,Urgent_order,Order_type_A,Order_type_B,Order_type_C,Fiscal_sector_orders,Orders_from_the_traffic_controller_sector,Banking_orders_(1),Banking_orders_(2),Banking_orders_(3),Target_(Total_orders),error
-0.01310918889468533,0.6954216496811941,-0.7533780444856684,-0.2307732043557023,-0.6700938273286011,2.617261776079846,-0.4245230171721804,0.4967989395144229,-0.5884135850701254,-0.5886144427018121,-0.388978027489742,-0.7078251661193982,1.1449762728220991,1.2029859939768497
-0.01310918889468533,1.4148233562479466,-0.6106704228817998,-0.5065349078967768,0.2867763046261769,-0.4127421412465342,-0.7397109023298071,-0.31400769405383416,-1.4306047364269319,-0.10989248670740158,-0.4951637769700916,-0.8325374261626123,-0.5156012627054767,0.04211070723840802
0.7734421447864372,-1.4627834700190634,0.7214753368581758,0.05207739358326479,-0.5727305374705508,0.5159145099728658,0.6440449430541804,-0.4184892386843788,-0.4181896152415532,-0.38692993298860345,1.860865216951352,-0.943673997381934,0.4696864465361265,-0.6136896680719297
0.7734421447864372,-0.7433817634523109,-0.32351413508353155,-0.07281333756286085,-0.9596666041506464,0.125328999103029,-0.5017565806316342,-0.4107895171321408,0.5656206037773925,-0.5989618125057625,0.2565018648965514,-0.8385199331019547,-0.3627744672997801,-0.1310725100556567
0.7734421447864372,-0.02398005688555833,-1.1035456377562425,-1.173818847057608,-1.0421415581558158,-0.5495951320290962,-1.5855327882310746,-0.3924648286907541,-0.8162607248698073,-0.5401334471117506,-0.7408723728954302,-0.5924701605197707,-1.26358482722883,-0.9190272230527549
0.7734421447864372,0.6954216496811941,-1.2046422936464167,-0.7112963235678543,-0.006813109566250046,-1.1387824344891375,-1.0079843859909543,-0.34960268490944024,-1.0461746928607054,-0.3231508863521841,-1.439756352652263,-0.7138843718656551,-1.1125362653951267,-0.6819328534517047
0.7734421447864372,1.4148233562479466,-0.5532159513942723,-1.4785299622759414,-0.8228331577329788,-0.7527679645545295,-0.8303277234775724,-0.4184892386843788,-0.8709076622455656,-0.4000648485371528,-0.3535993756699116,-0.9274138503160292,-0.9832541828540532,1.8635181500365419
1.5599934784675602,-1.4627834700190634,-0.20078500015600773,1.4553444526928832,0.3758920990837105,-0.3297280630445648,0.6216584029210043,-0.4184892386843788,-1.0315415492668942,-0.29790687208909783,1.2166550720969451,-1.0605629791198543,0.1798006103725993,-1.2308449435918662
1.5599934784675602,-0.7433817634523109,-0.3158680475901159,0.5251033574636133,0.11309690473087568,0.12950255821780352,-0.5618352410542532,-0.4046524497432432,0.5564438866083924,-0.2725067552643141,0.20680743207995644,-0.9020265452272814,-0.16275695437908927,-0.4971365659773707
1.5599934784675602,-0.02398005688555833,0.30437908778660033,-0.3444924317648347,0.33556505988507906,0.6588688466994085,-0.8965383492410175,1.0630583071816475,-1.3343732158439026,0.9313339001810792,0.2979055932402375,-0.6221525987957387,0.0289658867532498,0.6188435245571843
1.5599934784675602,0.6954216496811941,0.34820988535322184,-0.39066303192702795,1.32017676727796,-0.25343142760827997,-0.19034034082253126,-0.4184892386843788,-0.6194986810660181,1.411393878132897,-0.7292205720145853,-0.7790783577431042,0.04588161497290958,-1.0858210582052767
1.5599934784675602,1.4148233562479466,0.2838057442084911,0.08110103452123506,2.969943623206036,0.2369418942867162,-0.8845420837131309,-0.3174952786052341,-1.4200225760879048,1.3699374978192242,-0.5822535194512786,-0.9529545530186064,0.3491942400692737,1.4320664465975759
