Week_of_the_month,Day_of_the_week,Non_urgent_order,Urgent_order,Order_type_A,Order_type_B,Order_type_C,Fiscal_sector_orders,Orders_from_the_traffic_controller_sector,Banking_orders_(1),Banking_orders_(2),Banking_orders_(3),Target_(Total_orders),error
-1.5862118562569305,0.6954216496811941,-0.6372503702972421,-0.8491400607080359,-0.7526758916636472,-1.0571595426587597,-0.21781251887726436,-0.4184892386843788,-0.33774866203941584,-0.5629021207536331,0.2504518913622666,-1.183894660638605,-0.8575848406712697,0.5625365419421975
-1.5862118562569305,1.4148233562479466,-1.8702291319015483,-1.282156453065198,-1.621983328944106,-1.671507444353585,-1.3887015674297123,-0.41099498722974265,-2.687897661707616,-0.9631267885801428,-1.446428751447277,-0.6264477319829589,-1.9297358835118987,5.0938207511129905
-0.7996605225758079,-1.4627834700190634,-0.01825098354373967,0.3246101242834141,-0.5660896970181863,0.08077128703005408,0.5536471206685861,-0.32031778889334384,0.4519450532604976,-0.28851841802128925,-0.257621400465516,-0.35984267914764984,0.1828506185878542,-0.5784440937322212
-0.7996605225758079,-0.7433817634523109,-1.1900465364957975,-0.20022786357315828,-0.7729732991753089,-1.0456126957745495,-0.5672372105211714,-0.3835647291998946,0.33314376882938623,-0.6019946622758859,-1.5682747204875649,-0.21917706726618927,-1.0169280742933229,0.408978810747425
-0.7996605225758079,-0.02398005688555833,-0.8941705170399528,-0.8373376082549995,-1.1418077201062182,-1.1631480700830126,-0.33247053747239624,0.008672280014220135,0.6231611006208536,-0.8444665413240633,-0.7937038290260988,0.14199761449487808,-1.0524139632331682,0.6339402673989867
-0.7996605225758079,0.6954216496811941,-0.4124960223645937,-6.866206615777223e-05,-0.4717254963966875,-0.8517806860298023,0.3366923469431633,-0.4184892386843788,0.1710217655103818,-0.29088225681270896,-0.7751057622355194,-0.16426072151530288,-0.4257667033912215,-0.9029420952093685
-0.7996605225758079,1.4148233562479466,-0.7715139256370344,-0.18746043073087945,-0.7245058749060372,-0.4624472428943978,-0.36787533735692857,-0.3335489817573372,-0.7830261275550496,-0.4540986352504549,-0.5660704626723273,-0.3537834734013928,-0.584288348084442,-0.9151266831055007
-0.01310918889468533,-1.4627834700190634,0.6717685137985117,0.20265144893536965,-0.9714487404370994,0.7759669910053708,0.5478071536773221,-0.4127901470298431,1.827708570461697,-0.6061202299778922,0.5968937914839696,-0.970748676222804,0.4886505197564372,0.04840689036043936
-0.01310918889468533,-0.7433817634523109,-0.3777621827834976,-0.6634555650396652,-0.8415239102964885,-1.3101765954692155,0.7103285684050139,4.258659035673698,1.1342463757448136,-0.8674582186255138,0.07452961566985163,-0.8564674539199818,-0.5902533088006228,-0.5470725933696667
-0.01310918889468533,-0.02398005688555833,0.08528313477317832,-0.5985791911783194,-0.3430859902145989,0.035895589500715544,-0.3614270404707423,0.6304896806514211,0.2101261548881937,-0.6543336211764721,0.7299185182069491,-0.5794313633442809,-0.21894013153979705,-0.9499681901116284
-0.01310918889468533,0.6954216496811941,-0.38723636709697096,-1.0295913934962866,-0.4424308211753707,-0.8536488505859396,-0.1482195788980465,-0.3832186742986705,1.8523451625009952,-0.6438747495427375,-1.0633135549634272,0.4549287467066332,-0.6449508731037147,-0.25110890353095466
-0.01310918889468533,1.4148233562479466,-0.028856846841058825,-0.16734430107821954,-0.46985106562384293,0.5406577532961726,-0.2707372197355861,-0.29304433699061305,-0.9900396391872716,-0.28185060860020905,-0.0310835025706273,0.6775853831798502,0.08221160212730907,-0.6111618265223171
0.7734421447864372,-1.4627834700190634,0.6933429580161765,0.8345280307370911,-0.3144339769725432,0.23123803016319075,1.3812677761137502,-0.409551289438698,-0.7958404623405905,-0.3063141100548077,0.9395015519995829,0.4658199772885129,0.7037379994676288,-0.07076401172545185
0.7734421447864372,-0.7433817634523109,0.3077741247381361,0.8511553851363358,0.2360060082645533,0.5461231283274253,0.10007635101382167,-0.41173035389484397,1.1039880110254072,-0.5058800850021211,0.5389335512048951,0.5383770486297679,0.4051523243727666,-0.34174407222602954
0.7734421447864372,-0.02398005688555833,-0.7228082032169258,0.19801212014093705,0.21715459020622907,-0.6186575983331053,-0.6523060630272366,-0.4184892386843788,0.6462269032348272,-0.8160781754610696,-0.4133522006998856,0.08577738902644265,-0.6064149759486147,-0.3310513601333064
0.7734421447864372,0.6954216496811941,-0.4135551578238328,1.4655509760406362,-0.02421853817123721,-0.3370218544499088,0.6184707542716051,-0.3837701992974965,0.22012960333368045,-0.8964932951012543,0.3082876465891955,-0.5477547560885322,0.09011236141553346,-0.4819088922189465
0.7734421447864372,1.4148233562479466,-0.9741134811551738,-0.37978844523287775,-0.2353865535234333,-0.7503631995407795,-0.6228385629171551,-0.3156298264033225,-0.14611235214984306,-0.4598521296673066,-1.2829051869485812,-0.4229657972384034,-0.7624718538553376,0.011538782989439724
1.5599934784675602,-1.4627834700190634,0.9881163158980184,1.6627038924888446,0.3761063197434641,0.9629225652562516,1.1687903104149624,-0.4184892386843788,-0.4324920663247698,-0.3060465056633262,1.8975385133134979,-1.0670056789006848,1.1649307546141523,0.6389341995326728
-1.5862118562569305,-0.7433817634523109,-0.6019361825193019,1.7714126447999896,2.0545787440785346,-0.5708007871503562,-0.29093377224703754,4.145109771209514,1.325965358762035,-0.6132563470840648,-0.025481675224067246,3.8904984048343665,-0.02603555290708164,-0.8944465596434679
-1.5862118562569305,-0.02398005688555833,-0.6155453477352871,-0.7420643521325311,-0.4931475623720561,-1.2971391917583006,0.06939219111389237,0.6250825728197933,0.8478666615698868,-0.8357693986009153,-1.2330862690798403,1.831365535596868,-0.8061061042263434,0.31253700109386884
-1.5862118562569305,0.6954216496811941,-0.7148284155103249,-0.5704463013688802,-0.2560588471896638,-0.7310853312487247,-0.5597182530199203,-0.3673001488423581,0.3495130481038191,-0.5674290950428614,-0.7869567391997976,1.876004241221192,-0.7267045988439741,-0.37295087301602825
-1.5862118562569305,1.4148233562479466,0.2649444278110703,-1.161385445888529,-1.0729893331603466,0.3602805031738179,-0.04361117016704668,-0.3172195161058211,0.15407377434240838,-0.2194987853850243,0.3311182051527314,0.6123146984954866,-0.041634487912036514,-0.8394135942065938
-0.7996605225758079,-1.4627834700190634,1.3665178489450391,0.8356785842781107,0.35393448145895745,0.592330389955287,1.754782331596617,-0.411876345806298,1.1224241184910564,-0.07376589385740183,1.392054510570348,0.506316947339446,1.2214403164178205,0.4284470041486091
-0.7996605225758079,-0.7433817634523109,-0.7169031603140411,-0.4764720573088535,-0.8619819833029655,-0.664129518593126,-0.494602621067337,-0.4087077806169641,0.06908579911959525,-0.5470688609243123,-0.5929841309462447,0.5129897435410201,-0.7860053120771001,0.0818220203752741
-0.7996605225758079,-0.02398005688555833,-0.354243572106406,-1.247454273682842,-0.8855998110408095,-0.5809763217539973,-0.39610184448136665,-0.389415219873716,1.2551144883671412,-0.7237100596680456,-0.2933984044522129,0.7059639417382692,-0.6983203895492421,-0.5034261032047197
-0.7996605225758079,0.6954216496811941,-0.7835126246067781,-0.6867635529028946,0.12257616892497665,-0.6681043367976733,-0.8260450810173128,-0.3285744425522395,-0.33741796952882125,-0.4896900193174916,-0.7926830515985035,0.9356768684476336,-0.7346503767036413,-0.27610062431419496
-0.7996605225758079,1.4148233562479466,-0.3713638439132956,-0.8821349670940405,-0.7742050679688928,-0.98024681040077,0.12209789321004284,-0.4184892386843788,0.5294097738672835,-0.02024501556110589,-0.8831338904876265,0.4512472039747302,-0.661337633108921,-0.5652107479318548
-0.01310918889468533,-1.4627834700190634,1.8457258637838123,0.5364604343523847,0.30514572620005576,2.524370274639576,1.3918770494812116,-0.10679650773019224,2.254301909128736,0.24787228433738,1.9910516844854076,0.4636724106949029,2.1374444442088407,1.235087268070001
-0.01310918889468533,-0.7433817634523109,-0.30778669894906696,0.4775595159782676,-0.4687799623250744,-0.3944579775056167,0.42302652563066895,-0.3831916387595123,0.7497336590509381,-0.08926464819737086,-0.415020300398639,0.7111027618015504,-0.12623563829605888,-0.9314649545131326
-0.01310918889468533,-0.02398005688555833,0.488233396546688,-0.9932190557479352,-0.3511728201203007,0.7847910874194655,-0.86006288874142,0.08437178965700982,0.3807634903550092,-0.21713494659360455,1.175898666024417,0.776373446485914,-0.027172271836014204,-0.2938628813833516
-0.01310918889468533,0.6954216496811941,-0.024475217954888502,0.4654972611127433,-0.3514405959449929,0.22493794330898348,0.4373587779550604,-0.3034692408899915,-0.1628949970625192,0.7340202621954014,-0.7212286316668263,1.0253377737308544,0.2558144682538925,-0.4474209591536534
0.7734421447864372,-0.7433817634523109,3.8121486765592,2.3095747849541723,0.8446604577897145,3.1423352609005386,3.447910428342765,-0.4184892386843788,1.6834439627148017,3.654297784968962,2.4356127027084136,0.5675225952573334,3.5517366300153124,1.730281666430013
0.7734421447864372,-0.02398005688555833,0.9075349687662692,-0.2986558632758405,0.9781199288162612,0.8945755662290621,-0.4407775919645289,-0.1210983079448479,-1.756584878745563,2.604931764506253,-0.39094489131364535,0.8199383688134328,0.5082786169055306,0.06144503650512473
0.7734421447864372,0.6954216496811941,-0.06348912548770687,0.2300420461376997,1.015180102953649,-0.17262337350983406,-0.08512360219660872,-0.3409134626240143,-1.3585137691173086,1.100482175963331,-0.7130126182252049,2.4797005504463696,0.07621287748254592,-0.4929227593669755
0.7734421447864372,1.4148233562479466,0.00330895196900405,-1.542107324074845,0.6439892547654489,-0.0033358661781660373,-1.4328176514095454,-0.3985207894621772,0.1501881373429218,0.4428220835316379,-0.4433779952774475,0.652734969739505,-0.529264399138389,-0.656250728434147
1.5599934784675602,-1.4627834700190634,3.0354106499035782,0.7838665603018867,3.5381639232026885,3.0089801101379785,0.3066651833297521,-0.3690953086424585,-0.8489166102910244,3.29098022280094,1.410005255089769,1.8780751090078875,2.589363373638132,1.4783943815648677
1.5599934784675602,-0.7433817634523109,0.7092299899047732,-0.2794304847517118,-0.04890746920784947,0.30666020559447515,0.43723711197607584,2.441870804246746,-0.3753649351195521,1.9953958618093128,-0.3151085975464368,0.6071758784322052,0.36561476400306336,-0.3323073819569297
1.5599934784675602,-0.02398005688555833,0.31051626996822257,-0.2620979523757116,-0.27367849645440456,-0.18558128085665815,0.4849788421296525,2.501348990394652,1.2131992126492752,1.0663849164153991,-0.6132005034147192,0.8821411012212107,0.061705642835079885,-0.4695462591085666
-1.5862118562569305,1.4148233562479466,1.487447904462348,0.10303578106131274,3.0941916058631738,0.4359411676973749,0.8819749315565563,-0.3100388769054193,-0.5455062318204755,2.049295846326874,0.1487973977800234,-0.6975475259928355,1.3050510582300978,0.6949229987266282
-0.7996605225758079,-1.4627834700190634,1.1569686237696963,1.179768322303588,1.3536487453644734,0.9069173767541804,1.0561762802667731,-0.35262525818732016,-1.0227781977361372,0.5006915331895079,2.232926140804656,-0.812902531592463,1.286559680009938,0.5729713882194171
-0.7996605225758079,-0.7433817634523109,-0.10276418970910492,-0.6083403389618058,-0.31154199806586863,-0.2456407839273672,-0.3575580623390303,-0.4184892386843788,0.3268606111280888,-0.0786942747338524,-0.1633613189807321,-0.9058614855730136,-0.3699549294449183,-0.4075551648965952
-0.7996605225758079,-0.02398005688555833,-0.6750165292068463,-0.4032820062478843,0.06714657321371054,-0.7965505870776179,-0.6702396283295738,1.8416818349360558,-0.19042514856951995,-0.7337898250805147,-0.22931349960756586,-0.4912277353924382,-0.7469742106361283,-0.06449138328447873
-0.7996605225758079,0.6954216496811941,-0.8750045178391892,-0.45576209357050607,-0.2524170959738513,-0.6284157770252689,-0.7255246491801973,-0.3328568719548888,-0.7596296324304814,-0.4630633823650844,-1.0146896935952858,-0.6999251890071896,-0.7444869345639096,0.021620732294933578
-0.7996605225758079,1.4148233562479466,-0.7145962762315873,-0.913237027331917,-0.21589247348584764,-0.7234934284780391,-0.7391025724348841,-0.3511869675041072,-0.10089015132603102,-0.3680192226572455,-0.6794265511562737,-0.804005469990364,-0.7969335702948579,-0.4870220452128094
