Week_of_the_month,Day_of_the_week,Non_urgent_order,Urgent_order,Order_type_A,Order_type_B,Order_type_C,Fiscal_sector_orders,Orders_from_the_traffic_controller_sector,Banking_orders_(1),Banking_orders_(2),Banking_orders_(3),Target_(Total_orders),error
1.0,6.0,43.651,84.375,21.826,25.125,82.461,1.386,11992.0,3452.0,21305.0,14947.0,129.412,125.8789866165087
2.0,2.0,171.297,127.667,41.542,113.294,162.284,18.156,49971.0,33703.0,69054.0,18423.0,317.12,5.58082472784849
2.0,3.0,90.53200000000001,113.52600000000001,37.679,56.618,116.22,6.459,48534.0,19646.0,16411.0,20257.0,210.517,43.88589347056146
2.0,4.0,110.925,96.36,30.791999999999998,50.70399999999999,125.868,79.0,52042.0,8773.0,47522.0,24966.0,207.364,45.99615614970836
2.0,5.0,144.124,118.919,43.303999999999995,66.37100000000001,153.368,0.0,46573.0,33597.0,48269.0,20973.0,263.043,12.984626329066204
2.0,6.0,119.37899999999999,113.87,38.584,85.961,124.413,15.709000000000001,35033.0,26278.0,56665.0,18502.0,248.958,24.94424172058515
3.0,2.0,218.856,124.381,33.973,148.274,162.04399999999995,1.054,66612.0,19461.0,103376.0,10458.0,344.291,11.445902140195358
3.0,3.0,146.518,101.045,36.399,43.306000000000004,168.72299999999996,865.0,58224.0,7742.0,82395.0,11948.0,248.428,17.690243772371925
3.0,4.0,178.433,102.79299999999999,45.706,111.036,124.678,194.0,47046.0,17299.0,108719.0,15560.0,281.42,2.744558948535546
3.0,5.0,145.865,91.18,43.851000000000006,66.277,133.44,6.523,66910.0,17768.0,36693.0,29046.0,243.56799999999998,18.820039074688598
3.0,6.0,170.56599999999997,114.412,43.339,136.434,128.405,23.2,32529.0,34002.0,78153.0,31949.0,308.178,3.084096713055238
4.0,2.0,220.343,141.406,46.24100000000001,120.865,196.296,1.653,34878.0,32905.0,117137.0,29188.0,363.402,11.520798793738576
4.0,3.0,193.768,141.85399999999996,56.519,136.709,143.644,1.25,57858.0,23956.0,101048.0,30134.0,336.87199999999996,9.166667033862257
4.0,4.0,122.736,124.256,56.167,78.101,112.72399999999999,0.0,52321.0,10046.0,62799.0,24233.0,246.99200000000002,20.12293141547853
4.0,5.0,144.05100000000004,158.408,51.66,92.272,164.94799999999995,6.421,47167.0,6440.0,91784.0,15973.0,308.88,3.03559242768227
4.0,6.0,105.415,108.68799999999999,47.717,71.47399999999998,113.935,19.023,42737.0,26020.0,27873.0,17600.0,233.12599999999998,23.75135421671115
5.0,2.0,240.66,163.72,59.135,157.681,187.56400000000002,0.0,39273.0,32917.0,155617.0,9203.0,404.38,23.27225951756006
1.0,3.0,131.067,166.649,90.476,80.509,127.575,844.0,60543.0,19141.0,78378.0,73839.0,298.56,3.7371264393306634
1.0,4.0,130.129,98.927,42.903999999999996,43.961999999999996,142.38299999999995,193.0,54760.0,9163.0,29874.0,46992.0,229.24900000000002,30.157619131687856
1.0,5.0,123.286,103.551,47.331,72.444,116.529,9.467,48732.0,21196.0,47793.0,47574.0,236.304,26.97174260301349
1.0,6.0,190.81599999999997,87.62899999999998,32.077,127.35799999999999,137.739,18.729,46368.0,36798.0,92701.0,31098.0,297.1740000000001,1.5435047397788944
2.0,2.0,266.741,141.437,58.721000000000004,139.034,211.646,1.2229999999999999,58081.0,43333.0,135314.0,29716.0,409.401,25.2299023236654
2.0,3.0,123.14299999999999,106.083,36.016999999999996,75.813,119.205,1.8090000000000002,45340.0,22109.0,55584.0,29803.0,231.035,29.34296303522735
2.0,4.0,148.139,85.31,35.576,79.997,123.25299999999999,5.3770000000000024,59686.0,14188.0,67617.0,32319.0,238.826,26.253078392617695
2.0,5.0,118.552,100.417,54.401,75.613,105.584,16.629,40423.0,24682.0,47563.0,35314.0,235.59799999999998,26.90518764351778
2.0,6.0,146.959,95.15299999999999,37.656,59.907,144.549,0.0,50908.0,45733.0,43930.0,28998.0,242.112,26.22884175086066
3.0,2.0,299.77,133.375,57.81,236.248,196.732,57.645,71772.0,57756.0,159373.0,29160.0,490.79,33.593907938524495
3.0,3.0,151.341,131.78799999999998,43.358999999999995,89.382,156.916,6.528,53573.0,42638.0,62732.0,32386.0,289.657,4.033116023731307
3.0,4.0,206.206,92.16,45.555,148.718,104.186,93.0,49110.0,36904.0,126632.0,33237.0,298.459,5.448115442704231
3.0,5.0,170.868,131.463,45.55,120.54799999999999,157.505,21.272,42534.0,79556.0,50433.0,36483.0,323.603,7.2748960109397185
4.0,3.0,435.30400000000003,181.149,67.884,267.342,281.22700000000003,0.0,64867.0,210508.0,177229.0,30514.0,616.453,41.88182883094139
4.0,4.0,235.106,110.874,70.376,154.24200000000005,121.417,55.0,23257.0,163452.0,63699.0,33805.0,346.035,1.469714780025857
4.0,5.0,168.179,125.119,71.068,100.544,136.033,14.347000000000001,28072.0,95989.0,50763.0,55445.0,307.645,12.0467743106909
4.0,6.0,172.783,77.37100000000002,64.137,109.06200000000001,80.648,3.693,46321.0,66498.0,61593.0,31625.0,253.847,37.893379873629584
5.0,2.0,381.76800000000003,140.041,118.178,260.632,152.134,9.135,34236.0,194216.0,136035.0,47601.0,530.944,32.54246914053376
5.0,3.0,221.438,111.39200000000001,51.199,124.66,157.5,529.0,39964.0,136119.0,66745.0,31031.0,333.3590000000001,3.8815396956621546
5.0,4.0,193.957,111.859,47.001999999999995,99.89200000000001,159.46200000000005,540.0,59179.0,94460.0,54772.0,34616.0,306.356,15.537357662786516
1.0,6.0,275.07599999999996,121.697,109.88799999999999,131.165,175.77700000000004,20.057000000000002,37906.0,138536.0,85378.0,14020.0,416.83,14.046252462784587
2.0,2.0,252.298,150.708,77.388,154.863,182.93599999999998,12.181,32133.0,69093.0,169088.0,12516.0,415.18699999999995,16.15766437115233
2.0,3.0,165.472,102.53,46.295,96.87,124.837,0.0,48458.0,43112.0,72840.0,11304.0,268.002,21.90872996196157
2.0,4.0,126.03,108.055,53.36600000000001,69.15,111.98700000000001,418.0,42201.0,13736.0,70191.0,16710.0,234.503,29.575276289109315
2.0,5.0,112.24600000000001,106.641,47.398999999999994,77.61,109.715,15.837,35316.0,25876.0,38646.0,13989.0,234.72400000000002,25.050848241911233
2.0,6.0,123.302,94.315,48.081,72.82600000000002,109.15700000000001,12.447000000000001,43284.0,30138.0,52112.0,12632.0,230.06400000000002,34.22644663125667
