Week_of_the_month,Day_of_the_week,Non_urgent_order,Urgent_order,Order_type_A,Order_type_B,Order_type_C,Fiscal_sector_orders,Orders_from_the_traffic_controller_sector,Banking_orders_(1),Banking_orders_(2),Banking_orders_(3),Target_(Total_orders)
-0.01310918889468533,-1.4627834700190634,0.22133126081826543,1.8013270368664915,0.37112568940419105,0.414735512576115,0.6989162995762562,-0.4069775061108431,-0.5528641401812056,-0.22737081456777117,0.6016491204759384,-0.9718991583265238,0.6361201051604322
-0.01310918889468533,-0.7433817634523109,-0.7644917124552255,0.7594451335279929,-0.39112497316436334,-0.2018780354953018,-0.5880420929275462,-0.4184892386843788,0.8333161911037242,-0.655604742036009,-0.5021847339111135,-0.8108316638057675,-0.46850058233337
-0.01310918889468533,-0.02398005688555833,-0.6492635779719066,-0.1524613343056799,-0.7008880471681936,0.03001285855798546,-1.0964842191043866,-0.4097459453206366,-0.9208422313453507,-0.5695030290768429,0.12838184922811563,-0.49329860317913365,-0.6374440263156154
-0.01310918889468533,0.6954216496811941,-0.7533780444856684,-0.2307732043557023,-0.670093827328601,2.617261776079846,-0.4245230171721804,0.49679893951442294,-0.5884135850701254,-0.588614442701812,-0.38897802748974203,-0.7078251661193982,1.1449762728220991
-0.01310918889468533,1.4148233562479466,-0.6106704228817998,-0.5065349078967768,0.2867763046261769,-0.4127421412465342,-0.7397109023298071,-0.31400769405383416,-1.430604736426932,-0.10989248670740158,-0.49516377697009156,-0.8325374261626123,-0.5156012627054767
0.7734421447864372,-1.4627834700190634,0.7214753368581758,0.05207739358326479,-0.5727305374705508,0.5159145099728658,0.6440449430541804,-0.4184892386843788,-0.4181896152415532,-0.38692993298860345,1.8608652169513518,-0.9436739973819341,0.46968644653612646
0.7734421447864372,-0.7433817634523109,-0.32351413508353155,-0.07281333756286085,-0.9596666041506463,0.125328999103029,-0.5017565806316342,-0.41078951713214074,0.5656206037773925,-0.5989618125057625,0.2565018648965514,-0.8385199331019547,-0.3627744672997801
0.7734421447864372,-0.02398005688555833,-1.1035456377562425,-1.1738188470576079,-1.0421415581558158,-0.5495951320290962,-1.5855327882310746,-0.39246482869075405,-0.8162607248698073,-0.5401334471117506,-0.7408723728954302,-0.5924701605197707,-1.26358482722883
0.7734421447864372,0.6954216496811941,-1.2046422936464167,-0.7112963235678543,-0.006813109566250046,-1.1387824344891377,-1.0079843859909543,-0.34960268490944024,-1.0461746928607054,-0.3231508863521841,-1.439756352652263,-0.7138843718656551,-1.1125362653951267
0.7734421447864372,1.4148233562479466,-0.5532159513942723,-1.4785299622759414,-0.8228331577329788,-0.7527679645545295,-0.8303277234775724,-0.4184892386843788,-0.8709076622455656,-0.40006484853715274,-0.3535993756699116,-0.9274138503160293,-0.9832541828540531
1.55999347846756,-1.4627834700190634,-0.20078500015600773,1.4553444526928832,0.3758920990837105,-0.32972806304456476,0.6216584029210043,-0.4184892386843788,-1.0315415492668942,-0.29790687208909783,1.2166550720969451,-1.0605629791198545,0.1798006103725993
1.55999347846756,-0.7433817634523109,-0.3158680475901159,0.5251033574636133,0.11309690473087569,0.12950255821780352,-0.5618352410542532,-0.4046524497432432,0.5564438866083924,-0.27250675526431406,0.20680743207995644,-0.9020265452272814,-0.16275695437908927
1.55999347846756,-0.02398005688555833,0.30437908778660033,-0.3444924317648347,0.33556505988507906,0.6588688466994085,-0.8965383492410175,1.0630583071816477,-1.3343732158439026,0.9313339001810791,0.2979055932402375,-0.6221525987957387,0.028965886753249796
1.55999347846756,0.6954216496811941,0.34820988535322184,-0.390663031927028,1.3201767672779599,-0.25343142760828,-0.19034034082253123,-0.4184892386843788,-0.6194986810660181,1.411393878132897,-0.7292205720145853,-0.7790783577431042,0.04588161497290958
1.55999347846756,1.4148233562479466,0.2838057442084911,0.08110103452123506,2.969943623206036,0.2369418942867162,-0.884542083713131,-0.31749527860523413,-1.4200225760879048,1.3699374978192242,-0.5822535194512786,-0.9529545530186063,0.3491942400692737
