Week_of_the_month,Day_of_the_week,Non_urgent_order,Urgent_order,Order_type_A,Order_type_B,Order_type_C,Fiscal_sector_orders,Orders_from_the_traffic_controller_sector,Banking_orders_(1),Banking_orders_(2),Banking_orders_(3),Target_(Total_orders),error
3.0,3.0,119.863,139.38299999999998,44.809,99.072,115.365,0.0,54584.0,17242.0,59231.0,12543.0,259.246,15.316329822681698
3.0,4.0,127.805,114.81299999999999,39.025,110.74,94.47,1.617,33366.0,21103.0,84558.0,16683.0,244.235,10.431436623858675
3.0,5.0,120.62899999999999,112.70299999999999,39.6,240.922,122.085,169.275,37387.0,20246.0,63778.0,13886.0,402.60699999999997,29.26823760855421
3.0,6.0,130.465,105.273,57.467,88.462,109.132,19.323,27200.0,41713.0,59513.0,12260.0,255.06099999999998,13.23890268911776
4.0,2.0,222.282,120.324,41.418,135.189,165.99900000000005,0.0,39446.0,29290.0,154144.0,10811.0,342.606,18.292209997599283
4.0,3.0,150.257,116.959,34.193000000000005,115.536,118.911,1.4240000000000002,51346.0,19782.0,89704.0,12182.0,268.64,13.658757348938174
4.0,4.0,96.494,87.294,32.653,81.57600000000002,74.372,4.813,34631.0,22420.0,49644.0,15390.0,188.601,44.85305243340273
4.0,5.0,89.52600000000002,99.756,51.985,51.93,98.10700000000001,12.74,31850.0,32150.0,21573.0,13807.0,202.02200000000002,33.15793888726381
4.0,6.0,134.425,79.084,36.74800000000001,71.35300000000002,105.40799999999999,0.0,33970.0,28701.0,65199.0,11023.0,213.50900000000001,22.906716173447307
5.0,2.0,158.716,158.13299999999995,59.131,92.639,165.079,0.0,32027.0,33282.0,128269.0,9287.0,316.849,10.057589445455482
5.0,3.0,150.784,133.069,54.224,115.74600000000001,116.44200000000001,2.559,51235.0,34421.0,87708.0,11354.0,286.4120000000001,7.502178471676039
5.0,4.0,193.53400000000002,109.639,58.378,142.382,102.68700000000001,274.0,28364.0,88404.0,91367.0,15003.0,303.447,8.556655303350958
5.0,5.0,196.555,108.395,76.763,96.478,131.709,0.0,37011.0,109931.0,50112.0,12957.0,304.95,9.9393295135473
5.0,6.0,192.11599999999999,121.10600000000001,107.568,121.152,103.18,18.678,27328.0,108072.0,56015.0,10690.0,331.9,19.150982035251577
